-----BEGIN PGP SIGNATURE-----

iQGzBAABCgAdFiEEgCqXmQFhEjRuH+/0egKeVN1dznoFAmO56y8ACgkQegKeVN1d
znpKMgv+N82k/L378aQBkSY5e79Ne3/CEQmV6Ivjr1zdyqJ9yAyJoNSB556zak6c
QtsJc7GVVrl2A0pyReiQOMIDwXBK4bohqWferBz9KNQumwd8Gl5aF3Si2v1EF+Bl
1MUpHlR6nX6/jcUbnhszEMUzRg5oujwXvxfD2VIg5RAbL0gKFDBYFXVe9u3P6UKl
/sr2jVZDaORisYNokF+xMoXr3hLniM4rd4RLBQsCxCL92TH4Cci8FbiRmgX4qzMe
uBypWVRykx5exXWn9aLvqq/nS0Mh6z3VLntHTFHypWE2nsrQ0t3Rs+8wbRBBlVs0
CMBc7DrCy+Kej+q4kSfCNft6LW25pDDuLSHFawNcxnFVQRJ+YJ6BuMUVty+hR8VI
vCvWAkllAiUjSQsdFQZnMbMqaWWFoYSWHlQXz21hdMMUQ5JQlnOeY4XZZafa8HSL
6otNFBfcBmZG0VBVqEevcvNe+Sri7Mj+Y2dDt+0T5KcXAY5q4zAk9CoF6SqM4Q3+
5xJ5EBMm
=COLr
-----END PGP SIGNATURE-----
